Datum,Check-in,Vertrek,Check-uit,Bestemming,Bedrag,Transactie,Klasse,Product,Opmerkingen,Naam,Kaartnummer
20-06-2019,21:04,Schiphol Airport,21:44,Den Haag Centraal,"5,34",Check-uit,,Dal Voordeel (2e klas),,G. Hoekman,3528 0200 7865 3131
25-06-2019,13:01,Kalvermarkt-Stadhuis,13:19,Leggelostraat,"1,88",Check-uit,,,,G. Hoekman,3528 0200 7865 3131
25-06-2019,14:55,Leyweg,15:11,Kalvermarkt-Stadhuis,"1,84",Check-uit,,,,G. Hoekman,3528 0200 7865 3131
29-06-2019,14:20,Den Haag Centraal,15:00,Woerden,"5,34",Check-uit,,Dal Voordeel (2e klas),,G. Hoekman,3528 0200 7865 3131
29-06-2019,17:27,Woerden,18:09,Den Haag Centraal,"5,34",Check-uit,,Dal Voordeel (2e klas),,G. Hoekman,3528 0200 7865 3131
